EESchema Schematic File Version 2
LIBS:power
LIBS:relaydvr-cache
EELAYER 25 0
EELAYER END
$Descr A4 11693 8268
encoding utf-8
Sheet 1 1
Title ""
Date ""
Rev ""
Comp ""
Comment1 ""
Comment2 ""
Comment3 ""
Comment4 ""
$EndDescr
$Comp
L Regulator_Linear:MIC5205-3.3 U3
U 1 1 5A733E50
P 2400 975
F 0 "U3" H 2400 1317 50  0000 C CNN
F 1 "SPX5205-3.3" H 2400 1226 50  0000 C CNN
F 2 "TO_SOT_Packages_SMD:SOT-23-5" H 2400 1300 50  0001 C CNN
F 3 "http://ww1.microchip.com/downloads/en/devicedoc/mic5205.pdf" H 2400 975 50  0001 C CNN
	1    2400 975 
	1    0    0    -1  
$EndComp
$Comp
L Amplifier_Operational:LM358 U4
U 1 1 5A73469D
P 2825 2575
F 0 "U4" H 3166 2621 50  0000 L CNN
F 1 "MCP6002" H 3166 2530 50  0000 L CNN
F 2 "SMD_Packages:SOIC-8-N" H 2825 2575 50  0001 C CNN
F 3 "http://www.ti.com/lit/ds/symlink/lm2904-n.pdf" H 2825 2575 50  0001 C CNN
	1    2825 2575
	1    0    0    -1  
$EndComp
$Comp
L device:R R7
U 1 1 5A734767
P 3625 2575
F 0 "R7" V 3418 2575 50  0000 C CNN
F 1 "330" V 3509 2575 50  0000 C CNN
F 2 "Resistors_SMD:R_0603" V 3555 2575 50  0001 C CNN
F 3 "" H 3625 2575 50  0001 C CNN
	1    3625 2575
	0    1    1    0   
$EndComp
$Comp
L device:R R8
U 1 1 5A7348BA
P 4025 2575
F 0 "R8" V 3818 2575 50  0000 C CNN
F 1 "330" V 3909 2575 50  0000 C CNN
F 2 "Resistors_SMD:R_0603" V 3955 2575 50  0001 C CNN
F 3 "" H 4025 2575 50  0001 C CNN
	1    4025 2575
	0    1    1    0   
$EndComp
$Comp
L device:C C5
U 1 1 5A734907
P 3825 2800
F 0 "C5" H 3940 2846 50  0000 L CNN
F 1 "1n" H 3940 2755 50  0000 L CNN
F 2 "Capacitors_SMD:C_0603" H 3863 2650 50  0001 C CNN
F 3 "" H 3825 2800 50  0001 C CNN
	1    3825 2800
	1    0    0    -1  
$EndComp
$Comp
L device:C C6
U 1 1 5A7349A5
P 4275 2800
F 0 "C6" H 4390 2846 50  0000 L CNN
F 1 "1n" H 4390 2755 50  0000 L CNN
F 2 "Capacitors_SMD:C_0603" H 4313 2650 50  0001 C CNN
F 3 "" H 4275 2800 50  0001 C CNN
	1    4275 2800
	1    0    0    -1  
$EndComp
$Comp
L device:R R1
U 1 1 5A734E09
P 1700 2675
F 0 "R1" V 1493 2675 50  0000 C CNN
F 1 "430k" V 1584 2675 50  0000 C CNN
F 2 "Resistors_SMD:R_0603" V 1630 2675 50  0001 C CNN
F 3 "" H 1700 2675 50  0001 C CNN
	1    1700 2675
	0    1    1    0   
$EndComp
Wire Wire Line
	2350 2675 1950 2675
Wire Wire Line
	1950 2675 1850 2675
Wire Wire Line
	1550 2675 1475 2675
$Comp
L power:GND #PWR07
U 1 1 5A7351EA
P 1950 3025
F 0 "#PWR07" H 1950 2775 50  0001 C CNN
F 1 "GND" H 1955 2852 50  0000 C CNN
F 2 "" H 1950 3025 50  0001 C CNN
F 3 "" H 1950 3025 50  0001 C CNN
	1    1950 3025
	1    0    0    -1  
$EndComp
Wire Wire Line
	1950 3025 1950 2975
$Comp
L power:GND #PWR011
U 1 1 5A735370
P 2725 2925
F 0 "#PWR011" H 2725 2675 50  0001 C CNN
F 1 "GND" H 2730 2752 50  0000 C CNN
F 2 "" H 2725 2925 50  0001 C CNN
F 3 "" H 2725 2925 50  0001 C CNN
	1    2725 2925
	1    0    0    -1  
$EndComp
Wire Wire Line
	2725 2925 2725 2875
Wire Wire Line
	3775 2575 3825 2575
Wire Wire Line
	3825 2650 3825 2575
Connection ~ 3825 2575
Wire Wire Line
	3825 2575 3875 2575
Wire Wire Line
	4175 2575 4275 2575
Connection ~ 4275 2575
Wire Wire Line
	4275 2575 4525 2575
Wire Wire Line
	4275 2575 4275 2650
$Comp
L device:C C1
U 1 1 5A736413
P 1600 1100
F 0 "C1" H 1715 1146 50  0000 L CNN
F 1 "1u" H 1715 1055 50  0000 L CNN
F 2 "Capacitors_SMD:C_0603" H 1638 950 50  0001 C CNN
F 3 "" H 1600 1100 50  0001 C CNN
	1    1600 1100
	1    0    0    -1  
$EndComp
$Comp
L device:C C4
U 1 1 5A73649C
P 2975 1100
F 0 "C4" H 3090 1146 50  0000 L CNN
F 1 "1u" H 3090 1055 50  0000 L CNN
F 2 "Capacitors_SMD:C_0603" H 3013 950 50  0001 C CNN
F 3 "" H 2975 1100 50  0001 C CNN
	1    2975 1100
	1    0    0    -1  
$EndComp
$Comp
L power:GND #PWR06
U 1 1 5A7365B4
P 1600 1325
F 0 "#PWR06" H 1600 1075 50  0001 C CNN
F 1 "GND" H 1605 1152 50  0000 C CNN
F 2 "" H 1600 1325 50  0001 C CNN
F 3 "" H 1600 1325 50  0001 C CNN
	1    1600 1325
	1    0    0    -1  
$EndComp
$Comp
L power:GND #PWR010
U 1 1 5A73662B
P 2400 1325
F 0 "#PWR010" H 2400 1075 50  0001 C CNN
F 1 "GND" H 2405 1152 50  0000 C CNN
F 2 "" H 2400 1325 50  0001 C CNN
F 3 "" H 2400 1325 50  0001 C CNN
	1    2400 1325
	1    0    0    -1  
$EndComp
$Comp
L power:GND #PWR013
U 1 1 5A73664E
P 2975 1325
F 0 "#PWR013" H 2975 1075 50  0001 C CNN
F 1 "GND" H 2980 1152 50  0000 C CNN
F 2 "" H 2975 1325 50  0001 C CNN
F 3 "" H 2975 1325 50  0001 C CNN
	1    2975 1325
	1    0    0    -1  
$EndComp
Wire Wire Line
	2400 1325 2400 1275
Wire Wire Line
	2975 1325 2975 1250
Wire Wire Line
	1600 1325 1600 1250
Wire Wire Line
	1600 950  1600 875 
Wire Wire Line
	1600 875  2000 875 
Wire Wire Line
	2700 875  2975 875 
Wire Wire Line
	2975 875  2975 950 
$Comp
L al8805:AL8805 U5
U 1 1 5A73889A
P 4175 6150
F 0 "U5" H 4175 6475 50  0000 C CNN
F 1 "AL8805" H 4175 6384 50  0000 C CNN
F 2 "TO_SOT_Packages_SMD:SOT-23-5" H 4175 6150 50  0001 C CNN
F 3 "" H 4175 6150 50  0001 C CNN
	1    4175 6150
	1    0    0    -1  
$EndComp
$Comp
L device:R R10
U 1 1 5A7389B7
P 4175 5675
F 0 "R10" V 3968 5675 50  0000 C CNN
F 1 "2R2" V 4059 5675 50  0000 C CNN
F 2 "Resistors_SMD:R_1206" V 4105 5675 50  0001 C CNN
F 3 "" H 4175 5675 50  0001 C CNN
	1    4175 5675
	0    1    1    0   
$EndComp
$Comp
L device:L_Small L1
U 1 1 5A787482
P 4850 6250
F 0 "L1" V 5035 6250 50  0000 C CNN
F 1 "100u" V 4944 6250 50  0000 C CNN
F 2 "Resistors_SMD:R_1210" H 4850 6250 50  0001 C CNN
F 3 "" H 4850 6250 50  0001 C CNN
	1    4850 6250
	0    -1   -1   0   
$EndComp
$Comp
L Relay:FINDER-40.31 K2
U 1 1 5A78874D
P 5825 5950
F 0 "K2" H 6255 5996 50  0000 L CNN
F 1 "FINDER-40.31" H 6255 5905 50  0000 L CNN
F 2 "Relays_THT:Relay_SPDT_Finder_40.31" H 6965 5910 50  0001 C CNN
F 3 "http://gfinder.findernet.com/assets/Series/353/S40EN.pdf" H 5825 5950 50  0001 C CNN
	1    5825 5950
	1    0    0    1   
$EndComp
$Comp
L device:C C7
U 1 1 5A7888D2
P 5100 6075
F 0 "C7" H 5215 6121 50  0000 L CNN
F 1 "10u" H 5215 6030 50  0000 L CNN
F 2 "Capacitors_SMD:C_1206" H 5138 5925 50  0001 C CNN
F 3 "" H 5100 6075 50  0001 C CNN
	1    5100 6075
	1    0    0    -1  
$EndComp
Wire Wire Line
	4950 6250 5100 6250
Wire Wire Line
	5100 6225 5100 6250
Connection ~ 5100 6250
Wire Wire Line
	5100 6250 5625 6250
Wire Wire Line
	4575 6050 4575 5675
Wire Wire Line
	4575 5675 4325 5675
Wire Wire Line
	4575 5675 5100 5675
Wire Wire Line
	5100 5675 5100 5925
Connection ~ 4575 5675
Wire Wire Line
	5100 5650 5100 5675
Connection ~ 5100 5675
Wire Wire Line
	3775 6050 3775 5675
Wire Wire Line
	3775 5675 4025 5675
$Comp
L power:GND #PWR014
U 1 1 5A78B1B6
P 3700 6150
F 0 "#PWR014" H 3700 5900 50  0001 C CNN
F 1 "GND" V 3705 6022 50  0000 R CNN
F 2 "" H 3700 6150 50  0001 C CNN
F 3 "" H 3700 6150 50  0001 C CNN
	1    3700 6150
	0    1    1    0   
$EndComp
Wire Wire Line
	3700 6150 3775 6150
$Comp
L device:D_Schottky D3
U 1 1 5A78BA2C
P 4200 5000
F 0 "D3" H 4200 5216 50  0000 C CNN
F 1 "PMEG6010" H 4200 5125 50  0000 C CNN
F 2 "Diodes_SMD:SOD-123" H 4200 5000 50  0001 C CNN
F 3 "" H 4200 5000 50  0001 C CNN
	1    4200 5000
	1    0    0    -1  
$EndComp
Wire Wire Line
	4050 5000 3775 5000
Wire Wire Line
	4350 5000 4650 5000
$Comp
L device:R R3
U 1 1 5A78D1F4
P 1950 2825
F 0 "R3" V 1743 2825 50  0000 C CNN
F 1 "16k" V 1834 2825 50  0000 C CNN
F 2 "Resistors_SMD:R_0603" V 1880 2825 50  0001 C CNN
F 3 "" H 1950 2825 50  0001 C CNN
	1    1950 2825
	-1   0    0    1   
$EndComp
Connection ~ 1950 2675
$Comp
L device:C C2
U 1 1 5A78D29F
P 1725 2300
F 0 "C2" V 1473 2300 50  0000 C CNN
F 1 "1u" V 1564 2300 50  0000 C CNN
F 2 "Capacitors_SMD:C_0603" H 1763 2150 50  0001 C CNN
F 3 "" H 1725 2300 50  0001 C CNN
	1    1725 2300
	0    1    1    0   
$EndComp
Wire Wire Line
	1475 2675 1475 2300
Wire Wire Line
	1475 2300 1575 2300
Connection ~ 1475 2675
$Comp
L Connector_Generic:Conn_01x02 J2
U 1 1 5A78F26A
P 775 6325
F 0 "J2" H 695 6000 50  0000 C CNN
F 1 "Conn_01x02" H 695 6091 50  0000 C CNN
F 2 "Connect:bnc-ci" H 775 6325 50  0001 C CNN
F 3 "~" H 775 6325 50  0001 C CNN
	1    775  6325
	-1   0    0    -1  
$EndComp
$Comp
L device:R R2
U 1 1 5A78F270
P 1825 6325
F 0 "R2" V 1618 6325 50  0000 C CNN
F 1 "4k3" V 1709 6325 50  0000 C CNN
F 2 "Resistors_SMD:R_0603" V 1755 6325 50  0001 C CNN
F 3 "" H 1825 6325 50  0001 C CNN
	1    1825 6325
	0    1    1    0   
$EndComp
Wire Wire Line
	3775 6250 2475 6250
Wire Wire Line
	2475 6250 2475 6325
Wire Wire Line
	2475 6325 2075 6325
Wire Wire Line
	2075 6325 1975 6325
Wire Wire Line
	1675 6325 1600 6325
$Comp
L power:GND #PWR02
U 1 1 5A78F27B
P 1075 6425
F 0 "#PWR02" H 1075 6175 50  0001 C CNN
F 1 "GND" H 1080 6252 50  0000 C CNN
F 2 "" H 1075 6425 50  0001 C CNN
F 3 "" H 1075 6425 50  0001 C CNN
	1    1075 6425
	1    0    0    -1  
$EndComp
Wire Wire Line
	975  6425 1075 6425
$Comp
L power:GND #PWR09
U 1 1 5A78F283
P 2075 6675
F 0 "#PWR09" H 2075 6425 50  0001 C CNN
F 1 "GND" H 2080 6502 50  0000 C CNN
F 2 "" H 2075 6675 50  0001 C CNN
F 3 "" H 2075 6675 50  0001 C CNN
	1    2075 6675
	1    0    0    -1  
$EndComp
Wire Wire Line
	2075 6675 2075 6625
$Comp
L device:R R4
U 1 1 5A78F28A
P 2075 6475
F 0 "R4" V 1868 6475 50  0000 C CNN
F 1 "910" V 1959 6475 50  0000 C CNN
F 2 "Resistors_SMD:R_0603" V 2005 6475 50  0001 C CNN
F 3 "" H 2075 6475 50  0001 C CNN
	1    2075 6475
	-1   0    0    1   
$EndComp
Connection ~ 2075 6325
$Comp
L device:C C3
U 1 1 5A78F291
P 1850 5950
F 0 "C3" V 1598 5950 50  0000 C CNN
F 1 "10u" V 1689 5950 50  0000 C CNN
F 2 "Capacitors_SMD:C_0603" H 1888 5800 50  0001 C CNN
F 3 "" H 1850 5950 50  0001 C CNN
	1    1850 5950
	0    1    1    0   
$EndComp
Wire Wire Line
	1600 6325 1600 5950
Wire Wire Line
	1600 5950 1700 5950
Wire Wire Line
	2475 5950 2475 6250
Connection ~ 2475 6250
$Comp
L Relay:FINDER-40.31 K1
U 1 1 5A790985
P 5025 1875
F 0 "K1" H 5455 1921 50  0000 L CNN
F 1 "FINDER-40.31" H 5455 1830 50  0000 L CNN
F 2 "Relays_THT:Relay_SPDT_Finder_40.31" H 6165 1835 50  0001 C CNN
F 3 "http://gfinder.findernet.com/assets/Series/353/S40EN.pdf" H 5025 1875 50  0001 C CNN
	1    5025 1875
	1    0    0    -1  
$EndComp
$Comp
L device:R R12
U 1 1 5A790C4D
P 4825 3600
F 0 "R12" H 4895 3646 50  0000 L CNN
F 1 "10" H 4895 3555 50  0000 L CNN
F 2 "Resistors_SMD:R_1206" V 4755 3600 50  0001 C CNN
F 3 "" H 4825 3600 50  0001 C CNN
	1    4825 3600
	1    0    0    -1  
$EndComp
Wire Wire Line
	3125 2575 3475 2575
Wire Wire Line
	4825 2775 4825 3325
Wire Wire Line
	4825 3450 4825 3325
Connection ~ 4825 3325
$Comp
L power:GND #PWR018
U 1 1 5A793A78
P 4825 3825
F 0 "#PWR018" H 4825 3575 50  0001 C CNN
F 1 "GND" H 4830 3652 50  0000 C CNN
F 2 "" H 4825 3825 50  0001 C CNN
F 3 "" H 4825 3825 50  0001 C CNN
	1    4825 3825
	1    0    0    -1  
$EndComp
Wire Wire Line
	4825 3825 4825 3750
Wire Wire Line
	4825 2375 4825 2250
$Comp
L Connector_Generic:Conn_01x02 J3
U 1 1 5A7969F0
P 925 950
F 0 "J3" H 845 625 50  0000 C CNN
F 1 "Conn_01x02" H 845 716 50  0000 C CNN
F 2 "Connectors_Molex:Molex_KK_6410-02" H 925 950 50  0001 C CNN
F 3 "~" H 925 950 50  0001 C CNN
	1    925  950 
	-1   0    0    1   
$EndComp
$Comp
L power:GND #PWR04
U 1 1 5A796AEA
P 1225 1000
F 0 "#PWR04" H 1225 750 50  0001 C CNN
F 1 "GND" H 1230 827 50  0000 C CNN
F 2 "" H 1225 1000 50  0001 C CNN
F 3 "" H 1225 1000 50  0001 C CNN
	1    1225 1000
	1    0    0    -1  
$EndComp
Wire Wire Line
	1125 950  1225 950 
Wire Wire Line
	1225 950  1225 1000
$Comp
L device:D_Schottky D1
U 1 1 5A798496
P 1350 850
F 0 "D1" H 1350 634 50  0000 C CNN
F 1 "PMEG6010" H 1350 725 50  0000 C CNN
F 2 "Diodes_SMD:SOD-123" H 1350 850 50  0001 C CNN
F 3 "" H 1350 850 50  0001 C CNN
	1    1350 850 
	-1   0    0    1   
$EndComp
Wire Wire Line
	1600 850  1600 875 
Connection ~ 1600 875 
Wire Wire Line
	2100 975  2000 975 
Wire Wire Line
	2000 975  2000 875 
Connection ~ 2000 875 
Wire Wire Line
	2000 875  2100 875 
$Comp
L power:VCC #PWR012
U 1 1 5A79D5E7
P 2975 800
F 0 "#PWR012" H 2975 650 50  0001 C CNN
F 1 "VCC" H 2992 973 50  0000 C CNN
F 2 "" H 2975 800 50  0001 C CNN
F 3 "" H 2975 800 50  0001 C CNN
	1    2975 800 
	1    0    0    -1  
$EndComp
Wire Wire Line
	2975 875  2975 800 
Connection ~ 2975 875 
$Comp
L power:+5VP #PWR08
U 1 1 5A7A35ED
P 2000 825
F 0 "#PWR08" H 2000 675 50  0001 C CNN
F 1 "+5VP" H 2015 998 50  0000 C CNN
F 2 "" H 2000 825 50  0001 C CNN
F 3 "" H 2000 825 50  0001 C CNN
	1    2000 825 
	1    0    0    -1  
$EndComp
Wire Wire Line
	1125 850  1200 850 
Wire Wire Line
	1500 850  1600 850 
Wire Wire Line
	2000 825  2000 875 
$Comp
L Logic_74xgxx:74AHC1G126 U2
U 1 1 5A7A99F7
P 1300 6325
F 0 "U2" H 1275 6151 50  0000 C CNN
F 1 "74AHC1G126" H 1275 6060 50  0000 C CNN
F 2 "TO_SOT_Packages_SMD:SOT-23-5" H 1300 6325 50  0001 C CNN
F 3 "http://www.ti.com/lit/sg/scyt129e/scyt129e.pdf" H 1300 6325 50  0001 C CNN
	1    1300 6325
	1    0    0    -1  
$EndComp
Wire Wire Line
	1550 6325 1600 6325
Connection ~ 1600 6325
Wire Wire Line
	1000 6325 975  6325
$Comp
L power:VCC #PWR05
U 1 1 5A7AD6EF
P 1300 6075
F 0 "#PWR05" H 1300 5925 50  0001 C CNN
F 1 "VCC" H 1317 6248 50  0000 C CNN
F 2 "" H 1300 6075 50  0001 C CNN
F 3 "" H 1300 6075 50  0001 C CNN
	1    1300 6075
	1    0    0    -1  
$EndComp
Wire Wire Line
	1300 6125 1300 6075
$Comp
L Connector_Generic:Conn_01x02 J1
U 1 1 5A7AFB97
P 575 2675
F 0 "J1" H 495 2350 50  0000 C CNN
F 1 "Conn_01x02" H 495 2441 50  0000 C CNN
F 2 "Connect:bnc-ci" H 575 2675 50  0001 C CNN
F 3 "~" H 575 2675 50  0001 C CNN
	1    575  2675
	-1   0    0    -1  
$EndComp
$Comp
L power:GND #PWR01
U 1 1 5A7AFB9D
P 875 2775
F 0 "#PWR01" H 875 2525 50  0001 C CNN
F 1 "GND" H 880 2602 50  0000 C CNN
F 2 "" H 875 2775 50  0001 C CNN
F 3 "" H 875 2775 50  0001 C CNN
	1    875  2775
	1    0    0    -1  
$EndComp
Wire Wire Line
	775  2775 875  2775
Wire Wire Line
	800  2675 775  2675
$Comp
L power:VCC #PWR03
U 1 1 5A7AFBAC
P 1100 2425
F 0 "#PWR03" H 1100 2275 50  0001 C CNN
F 1 "VCC" H 1117 2598 50  0000 C CNN
F 2 "" H 1100 2425 50  0001 C CNN
F 3 "" H 1100 2425 50  0001 C CNN
	1    1100 2425
	1    0    0    -1  
$EndComp
Wire Wire Line
	1100 2475 1100 2425
Wire Wire Line
	1350 2675 1475 2675
$Comp
L Logic_74xgxx:74AHC1G126 U1
U 1 1 5A7AFBA4
P 1100 2675
F 0 "U1" H 1075 2501 50  0000 C CNN
F 1 "74AHC1G126" H 1075 2410 50  0000 C CNN
F 2 "TO_SOT_Packages_SMD:SOT-23-5" H 1100 2675 50  0001 C CNN
F 3 "http://www.ti.com/lit/sg/scyt129e/scyt129e.pdf" H 1100 2675 50  0001 C CNN
	1    1100 2675
	1    0    0    -1  
$EndComp
Wire Wire Line
	4575 6250 4650 6250
$Comp
L device:R R9
U 1 1 5A7BAA80
P 4175 5350
F 0 "R9" V 3968 5350 50  0000 C CNN
F 1 "DNP" V 4059 5350 50  0000 C CNN
F 2 "Resistors_SMD:R_1206" V 4105 5350 50  0001 C CNN
F 3 "" H 4175 5350 50  0001 C CNN
	1    4175 5350
	0    1    1    0   
$EndComp
Wire Wire Line
	3775 5000 3775 5350
Connection ~ 3775 5675
Wire Wire Line
	4025 5350 3775 5350
Connection ~ 3775 5350
Wire Wire Line
	3775 5350 3775 5675
Connection ~ 4650 6250
Wire Wire Line
	4650 6250 4750 6250
$Comp
L Amplifier_Operational:LM358 U4
U 2 1 5A7C311E
P 10500 5825
F 0 "U4" H 10841 5871 50  0000 L CNN
F 1 "MCP6002" H 10841 5780 50  0000 L CNN
F 2 "SMD_Packages:SOIC-8-N" H 10500 5825 50  0001 C CNN
F 3 "http://www.ti.com/lit/ds/symlink/lm2904-n.pdf" H 10500 5825 50  0001 C CNN
	2    10500 5825
	1    0    0    -1  
$EndComp
Wire Wire Line
	10200 5925 10075 5925
Wire Wire Line
	10075 5925 10075 6250
Wire Wire Line
	10800 6250 10800 5825
Wire Wire Line
	10075 6250 10800 6250
$Comp
L power:GND #PWR031
U 1 1 5A7C59EE
P 10400 6325
F 0 "#PWR031" H 10400 6075 50  0001 C CNN
F 1 "GND" H 10405 6152 50  0000 C CNN
F 2 "" H 10400 6325 50  0001 C CNN
F 3 "" H 10400 6325 50  0001 C CNN
	1    10400 6325
	1    0    0    -1  
$EndComp
$Comp
L power:GND #PWR030
U 1 1 5A7C5A37
P 9925 5825
F 0 "#PWR030" H 9925 5575 50  0001 C CNN
F 1 "GND" H 9930 5652 50  0000 C CNN
F 2 "" H 9925 5825 50  0001 C CNN
F 3 "" H 9925 5825 50  0001 C CNN
	1    9925 5825
	1    0    0    -1  
$EndComp
Wire Wire Line
	10400 6325 10400 6125
Wire Wire Line
	9925 5825 9925 5725
Wire Wire Line
	9925 5725 10200 5725
$Comp
L power:+5VP #PWR015
U 1 1 5A7CCE27
P 3775 4950
F 0 "#PWR015" H 3775 4800 50  0001 C CNN
F 1 "+5VP" H 3790 5123 50  0000 C CNN
F 2 "" H 3775 4950 50  0001 C CNN
F 3 "" H 3775 4950 50  0001 C CNN
	1    3775 4950
	1    0    0    -1  
$EndComp
Wire Wire Line
	3775 4950 3775 5000
Connection ~ 3775 5000
$Comp
L power:+5VP #PWR017
U 1 1 5A7CF7B8
P 4825 1400
F 0 "#PWR017" H 4825 1250 50  0001 C CNN
F 1 "+5VP" H 4840 1573 50  0000 C CNN
F 2 "" H 4825 1400 50  0001 C CNN
F 3 "" H 4825 1400 50  0001 C CNN
	1    4825 1400
	1    0    0    -1  
$EndComp
$Comp
L device:D_Schottky D2
U 1 1 5A7D265E
P 4125 1850
F 0 "D2" V 4079 1929 50  0000 L CNN
F 1 "PMEG6010" V 4170 1929 50  0000 L CNN
F 2 "Diodes_SMD:SOD-123" H 4125 1850 50  0001 C CNN
F 3 "" H 4125 1850 50  0001 C CNN
	1    4125 1850
	0    1    1    0   
$EndComp
Wire Wire Line
	4825 2250 4125 2250
Wire Wire Line
	4125 2250 4125 2000
Connection ~ 4825 2250
Wire Wire Line
	4825 2250 4825 2175
Wire Wire Line
	4125 1700 4125 1500
Wire Wire Line
	4125 1500 4825 1500
Connection ~ 4825 1500
Wire Wire Line
	4825 1500 4825 1575
$Comp
L Relay:FINDER-40.31 K3
U 1 1 5A7DABAB
P 10050 2825
F 0 "K3" H 10480 2871 50  0000 L CNN
F 1 "FINDER-40.31" H 10480 2780 50  0000 L CNN
F 2 "Relays_THT:Relay_SPDT_Finder_40.31" H 11190 2785 50  0001 C CNN
F 3 "http://gfinder.findernet.com/assets/Series/353/S40EN.pdf" H 10050 2825 50  0001 C CNN
	1    10050 2825
	1    0    0    -1  
$EndComp
Wire Wire Line
	9850 3325 9850 3200
$Comp
L power:+5VP #PWR028
U 1 1 5A7DABC3
P 9850 2425
F 0 "#PWR028" H 9850 2275 50  0001 C CNN
F 1 "+5VP" H 9865 2598 50  0000 C CNN
F 2 "" H 9850 2425 50  0001 C CNN
F 3 "" H 9850 2425 50  0001 C CNN
	1    9850 2425
	1    0    0    -1  
$EndComp
Wire Wire Line
	9850 2425 9850 2450
$Comp
L device:D_Schottky D4
U 1 1 5A7DABCA
P 9150 2800
F 0 "D4" V 9104 2879 50  0000 L CNN
F 1 "PMEG6010" V 9195 2879 50  0000 L CNN
F 2 "Diodes_SMD:SOD-123" H 9150 2800 50  0001 C CNN
F 3 "" H 9150 2800 50  0001 C CNN
	1    9150 2800
	0    1    1    0   
$EndComp
Wire Wire Line
	9850 3200 9150 3200
Wire Wire Line
	9150 3200 9150 2950
Connection ~ 9850 3200
Wire Wire Line
	9850 3200 9850 3125
Wire Wire Line
	9150 2650 9150 2450
Wire Wire Line
	9150 2450 9850 2450
Connection ~ 9850 2450
Wire Wire Line
	9850 2450 9850 2525
$Comp
L power:GND #PWR029
U 1 1 5A7E7E91
P 9850 4125
F 0 "#PWR029" H 9850 3875 50  0001 C CNN
F 1 "GND" H 9855 3952 50  0000 C CNN
F 2 "" H 9850 4125 50  0001 C CNN
F 3 "" H 9850 4125 50  0001 C CNN
	1    9850 4125
	1    0    0    -1  
$EndComp
Wire Wire Line
	9850 3775 9850 3750
$Comp
L LTC6992CS6-3TRMPBF:LTC6992CS6-3TRMPBF U7
U 1 1 5A7F1D6A
P 8400 3725
F 0 "U7" H 8400 4295 50  0000 C CNN
F 1 "LTC6992CS6-3TRMPBF" H 8400 4204 50  0000 C CNN
F 2 "TO_SOT_Packages_SMD:SOT-23-6" H 8400 3725 50  0001 L BNN
F 3 "Warning" H 8400 3725 50  0001 L BNN
F 4 "LTC6992CS6-3#TRMPBF" H 8400 3725 50  0001 L BNN "Field4"
F 5 "2.79 USD" H 8400 3725 50  0001 L BNN "Field5"
F 6 "Linear Technology" H 8400 3725 50  0001 L BNN "Field6"
F 7 "IC OSC SILICON PROG TSOT23-6" H 8400 3725 50  0001 L BNN "Field7"
F 8 "TSOT-23-6 Linear Technology" H 8400 3725 50  0001 L BNN "Field8"
	1    8400 3725
	1    0    0    -1  
$EndComp
Wire Wire Line
	9100 3525 9425 3525
$Comp
L device:R R11
U 1 1 5A7F5469
P 4525 2800
F 0 "R11" H 4595 2846 50  0000 L CNN
F 1 "1M" H 4595 2755 50  0000 L CNN
F 2 "Resistors_SMD:R_0603" V 4455 2800 50  0001 C CNN
F 3 "" H 4525 2800 50  0001 C CNN
	1    4525 2800
	1    0    0    -1  
$EndComp
$Comp
L power:GND #PWR016
U 1 1 5A7F5580
P 4525 3000
F 0 "#PWR016" H 4525 2750 50  0001 C CNN
F 1 "GND" H 4530 2827 50  0000 C CNN
F 2 "" H 4525 3000 50  0001 C CNN
F 3 "" H 4525 3000 50  0001 C CNN
	1    4525 3000
	1    0    0    -1  
$EndComp
Wire Wire Line
	3825 2950 3825 3325
Connection ~ 3825 3325
Wire Wire Line
	3825 3325 4275 3325
Wire Wire Line
	4275 2950 4275 3325
Connection ~ 4275 3325
Wire Wire Line
	4275 3325 4825 3325
Wire Wire Line
	4525 2650 4525 2575
Wire Wire Line
	4525 3000 4525 2950
$Comp
L device:R R19
U 1 1 5A80257D
P 9425 3700
F 0 "R19" H 9495 3746 50  0000 L CNN
F 1 "1M" H 9495 3655 50  0000 L CNN
F 2 "Resistors_SMD:R_0603" V 9355 3700 50  0001 C CNN
F 3 "" H 9425 3700 50  0001 C CNN
	1    9425 3700
	1    0    0    -1  
$EndComp
$Comp
L power:GND #PWR027
U 1 1 5A80278D
P 9425 3900
F 0 "#PWR027" H 9425 3650 50  0001 C CNN
F 1 "GND" H 9430 3727 50  0000 C CNN
F 2 "" H 9425 3900 50  0001 C CNN
F 3 "" H 9425 3900 50  0001 C CNN
	1    9425 3900
	1    0    0    -1  
$EndComp
Wire Wire Line
	9425 3900 9425 3850
Wire Wire Line
	9425 3550 9425 3525
Connection ~ 9425 3525
Wire Wire Line
	9425 3525 9550 3525
$Comp
L power:VCC #PWR025
U 1 1 5A809858
P 7650 3475
F 0 "#PWR025" H 7650 3325 50  0001 C CNN
F 1 "VCC" H 7667 3648 50  0000 C CNN
F 2 "" H 7650 3475 50  0001 C CNN
F 3 "" H 7650 3475 50  0001 C CNN
	1    7650 3475
	1    0    0    -1  
$EndComp
Wire Wire Line
	7650 3475 7650 3525
Wire Wire Line
	7650 3525 7700 3525
$Comp
L device:R R14
U 1 1 5A80D353
P 6675 3975
F 0 "R14" H 6745 4021 50  0000 L CNN
F 1 "976k" H 6745 3930 50  0000 L CNN
F 2 "Resistors_SMD:R_0603" V 6605 3975 50  0001 C CNN
F 3 "" H 6675 3975 50  0001 C CNN
	1    6675 3975
	1    0    0    -1  
$EndComp
$Comp
L device:R R15
U 1 1 5A80D532
P 6675 4350
F 0 "R15" H 6745 4396 50  0000 L CNN
F 1 "100k" H 6745 4305 50  0000 L CNN
F 2 "Resistors_SMD:R_0603" V 6605 4350 50  0001 C CNN
F 3 "" H 6675 4350 50  0001 C CNN
	1    6675 4350
	1    0    0    -1  
$EndComp
$Comp
L power:GND #PWR022
U 1 1 5A80D60E
P 6675 4550
F 0 "#PWR022" H 6675 4300 50  0001 C CNN
F 1 "GND" H 6680 4377 50  0000 C CNN
F 2 "" H 6675 4550 50  0001 C CNN
F 3 "" H 6675 4550 50  0001 C CNN
	1    6675 4550
	1    0    0    -1  
$EndComp
Wire Wire Line
	6675 4550 6675 4500
Wire Wire Line
	6675 4200 6675 4150
$Comp
L power:VCC #PWR021
U 1 1 5A814B30
P 6675 3750
F 0 "#PWR021" H 6675 3600 50  0001 C CNN
F 1 "VCC" H 6692 3923 50  0000 C CNN
F 2 "" H 6675 3750 50  0001 C CNN
F 3 "" H 6675 3750 50  0001 C CNN
	1    6675 3750
	1    0    0    -1  
$EndComp
Wire Wire Line
	6675 3825 6675 3750
Wire Wire Line
	7700 3925 7100 3925
Wire Wire Line
	7100 3925 7100 4150
Wire Wire Line
	7100 4150 6675 4150
Connection ~ 6675 4150
Wire Wire Line
	6675 4150 6675 4125
$Comp
L device:R R18
U 1 1 5A81C54E
P 7400 3825
F 0 "R18" V 7193 3825 50  0000 C CNN
F 1 "410k" V 7284 3825 50  0000 C CNN
F 2 "Resistors_SMD:R_0603" V 7330 3825 50  0001 C CNN
F 3 "" H 7400 3825 50  0001 C CNN
	1    7400 3825
	0    1    1    0   
$EndComp
$Comp
L power:GND #PWR024
U 1 1 5A81C610
P 7125 3825
F 0 "#PWR024" H 7125 3575 50  0001 C CNN
F 1 "GND" H 7130 3652 50  0000 C CNN
F 2 "" H 7125 3825 50  0001 C CNN
F 3 "" H 7125 3825 50  0001 C CNN
	1    7125 3825
	0    1    1    0   
$EndComp
Wire Wire Line
	7125 3825 7250 3825
Wire Wire Line
	7550 3825 7700 3825
$Comp
L power:GND #PWR026
U 1 1 5A824704
P 7675 4175
F 0 "#PWR026" H 7675 3925 50  0001 C CNN
F 1 "GND" H 7680 4002 50  0000 C CNN
F 2 "" H 7675 4175 50  0001 C CNN
F 3 "" H 7675 4175 50  0001 C CNN
	1    7675 4175
	1    0    0    -1  
$EndComp
Wire Wire Line
	7675 4175 7675 4125
Wire Wire Line
	7675 4125 7700 4125
Wire Wire Line
	2350 2300 2350 2475
Wire Wire Line
	2525 2475 2350 2475
Connection ~ 2350 2475
Wire Wire Line
	2350 2475 2350 2675
Wire Wire Line
	2525 2675 2450 2675
Wire Wire Line
	2450 2675 2450 3325
$Comp
L device:R R13
U 1 1 5A8362ED
P 6600 3075
F 0 "R13" V 6393 3075 50  0000 C CNN
F 1 "430k" V 6484 3075 50  0000 C CNN
F 2 "Resistors_SMD:R_0603" V 6530 3075 50  0001 C CNN
F 3 "" H 6600 3075 50  0001 C CNN
	1    6600 3075
	0    1    1    0   
$EndComp
Wire Wire Line
	7250 3075 6850 3075
Wire Wire Line
	6850 3075 6750 3075
Wire Wire Line
	6450 3075 6375 3075
$Comp
L power:GND #PWR023
U 1 1 5A8362F7
P 6850 3425
F 0 "#PWR023" H 6850 3175 50  0001 C CNN
F 1 "GND" H 6855 3252 50  0000 C CNN
F 2 "" H 6850 3425 50  0001 C CNN
F 3 "" H 6850 3425 50  0001 C CNN
	1    6850 3425
	1    0    0    -1  
$EndComp
Wire Wire Line
	6850 3425 6850 3375
$Comp
L device:R R16
U 1 1 5A8362FE
P 6850 3225
F 0 "R16" V 6643 3225 50  0000 C CNN
F 1 "56k" V 6734 3225 50  0000 C CNN
F 2 "Resistors_SMD:R_0603" V 6780 3225 50  0001 C CNN
F 3 "" H 6850 3225 50  0001 C CNN
	1    6850 3225
	-1   0    0    1   
$EndComp
Connection ~ 6850 3075
$Comp
L device:C C8
U 1 1 5A836306
P 6625 2700
F 0 "C8" V 6373 2700 50  0000 C CNN
F 1 "1u" V 6464 2700 50  0000 C CNN
F 2 "Capacitors_SMD:C_0603" H 6663 2550 50  0001 C CNN
F 3 "" H 6625 2700 50  0001 C CNN
	1    6625 2700
	0    1    1    0   
$EndComp
Wire Wire Line
	6375 3075 6375 2700
Wire Wire Line
	6375 2700 6475 2700
Connection ~ 6375 3075
$Comp
L Connector_Generic:Conn_01x02 J4
U 1 1 5A836311
P 5475 3075
F 0 "J4" H 5395 2750 50  0000 C CNN
F 1 "Conn_01x02" H 5395 2841 50  0000 C CNN
F 2 "Connect:bnc-ci" H 5475 3075 50  0001 C CNN
F 3 "~" H 5475 3075 50  0001 C CNN
	1    5475 3075
	-1   0    0    -1  
$EndComp
$Comp
L power:GND #PWR019
U 1 1 5A836318
P 5775 3175
F 0 "#PWR019" H 5775 2925 50  0001 C CNN
F 1 "GND" H 5780 3002 50  0000 C CNN
F 2 "" H 5775 3175 50  0001 C CNN
F 3 "" H 5775 3175 50  0001 C CNN
	1    5775 3175
	1    0    0    -1  
$EndComp
Wire Wire Line
	5675 3175 5775 3175
Wire Wire Line
	5700 3075 5675 3075
$Comp
L power:VCC #PWR020
U 1 1 5A836320
P 6000 2825
F 0 "#PWR020" H 6000 2675 50  0001 C CNN
F 1 "VCC" H 6017 2998 50  0000 C CNN
F 2 "" H 6000 2825 50  0001 C CNN
F 3 "" H 6000 2825 50  0001 C CNN
	1    6000 2825
	1    0    0    -1  
$EndComp
Wire Wire Line
	6000 2875 6000 2825
Wire Wire Line
	6250 3075 6375 3075
$Comp
L Logic_74xgxx:74AHC1G126 U6
U 1 1 5A836328
P 6000 3075
F 0 "U6" H 5975 2901 50  0000 C CNN
F 1 "74AHC1G126" H 5975 2810 50  0000 C CNN
F 2 "TO_SOT_Packages_SMD:SOT-23-5" H 6000 3075 50  0001 C CNN
F 3 "http://www.ti.com/lit/sg/scyt129e/scyt129e.pdf" H 6000 3075 50  0001 C CNN
	1    6000 3075
	1    0    0    -1  
$EndComp
Wire Wire Line
	7250 2700 7250 2875
Wire Wire Line
	7425 2875 7250 2875
Connection ~ 7250 2875
Wire Wire Line
	7250 2875 7250 3075
Wire Wire Line
	2450 3325 3825 3325
Wire Wire Line
	7425 2875 7425 3525
Wire Wire Line
	7425 3525 7600 3525
Wire Wire Line
	7600 3525 7600 3725
Wire Wire Line
	7600 3725 7700 3725
$Comp
L device:R R17
U 1 1 5A8415D5
P 7000 2700
F 0 "R17" V 6793 2700 50  0000 C CNN
F 1 "200k" V 6884 2700 50  0000 C CNN
F 2 "Resistors_SMD:R_0603" V 6930 2700 50  0001 C CNN
F 3 "" H 7000 2700 50  0001 C CNN
	1    7000 2700
	0    1    1    0   
$EndComp
Wire Wire Line
	6775 2700 6850 2700
Wire Wire Line
	7150 2700 7250 2700
$Comp
L device:R R6
U 1 1 5A853665
P 2225 5950
F 0 "R6" V 2018 5950 50  0000 C CNN
F 1 "330" V 2109 5950 50  0000 C CNN
F 2 "Resistors_SMD:R_0603" V 2155 5950 50  0001 C CNN
F 3 "" H 2225 5950 50  0001 C CNN
	1    2225 5950
	0    1    1    0   
$EndComp
$Comp
L device:R R5
U 1 1 5A853887
P 2125 2300
F 0 "R5" V 1918 2300 50  0000 C CNN
F 1 "100k" V 2009 2300 50  0000 C CNN
F 2 "Resistors_SMD:R_0603" V 2055 2300 50  0001 C CNN
F 3 "" H 2125 2300 50  0001 C CNN
	1    2125 2300
	0    1    1    0   
$EndComp
Wire Wire Line
	1875 2300 1975 2300
Wire Wire Line
	2275 2300 2350 2300
Wire Wire Line
	2000 5950 2075 5950
Wire Wire Line
	2375 5950 2475 5950
$Comp
L Transistor_FET:CSD17578Q5A Q2
U 1 1 5A7A3376
P 9750 3525
F 0 "Q2" H 9956 3571 50  0000 L CNN
F 1 "BSC052N03" H 9956 3480 50  0000 L CNN
F 2 "TO_SOT_Packages_SMD:TDSON-8-1" H 9950 3450 50  0001 L CIN
F 3 "http://www.ti.com/lit/gpn/csd17578q5a" V 9750 3525 50  0001 L CNN
	1    9750 3525
	1    0    0    -1  
$EndComp
$Comp
L Transistor_FET:CSD17578Q5A Q1
U 1 1 5A7A34FD
P 4725 2575
F 0 "Q1" H 4931 2621 50  0000 L CNN
F 1 "BSC052N03" H 4931 2530 50  0000 L CNN
F 2 "TO_SOT_Packages_SMD:TDSON-8-1" H 4925 2500 50  0001 L CIN
F 3 "http://www.ti.com/lit/gpn/csd17578q5a" V 4725 2575 50  0001 L CNN
	1    4725 2575
	1    0    0    -1  
$EndComp
Connection ~ 4525 2575
NoConn ~ 2700 975 
$Comp
L power:VCC #PWR032
U 1 1 5A7B5671
P 2725 2225
F 0 "#PWR032" H 2725 2075 50  0001 C CNN
F 1 "VCC" H 2742 2398 50  0000 C CNN
F 2 "" H 2725 2225 50  0001 C CNN
F 3 "" H 2725 2225 50  0001 C CNN
	1    2725 2225
	1    0    0    -1  
$EndComp
Wire Wire Line
	2725 2275 2725 2225
$Comp
L device:C C9
U 1 1 5A7BB310
P 925 1950
F 0 "C9" V 673 1950 50  0000 C CNN
F 1 "100n" V 764 1950 50  0000 C CNN
F 2 "Capacitors_SMD:C_0603" H 963 1800 50  0001 C CNN
F 3 "" H 925 1950 50  0001 C CNN
	1    925  1950
	-1   0    0    1   
$EndComp
$Comp
L power:GND #PWR033
U 1 1 5A7BB421
P 925 2150
F 0 "#PWR033" H 925 1900 50  0001 C CNN
F 1 "GND" H 930 1977 50  0000 C CNN
F 2 "" H 925 2150 50  0001 C CNN
F 3 "" H 925 2150 50  0001 C CNN
	1    925  2150
	1    0    0    -1  
$EndComp
$Comp
L power:VCC #PWR034
U 1 1 5A7BB558
P 925 1725
F 0 "#PWR034" H 925 1575 50  0001 C CNN
F 1 "VCC" H 942 1898 50  0000 C CNN
F 2 "" H 925 1725 50  0001 C CNN
F 3 "" H 925 1725 50  0001 C CNN
	1    925  1725
	1    0    0    -1  
$EndComp
Wire Wire Line
	925  1800 925  1725
Wire Wire Line
	925  2150 925  2100
$Comp
L device:C C10
U 1 1 5A7C7325
P 3025 2100
F 0 "C10" V 2773 2100 50  0000 C CNN
F 1 "100n" V 2864 2100 50  0000 C CNN
F 2 "Capacitors_SMD:C_0603" H 3063 1950 50  0001 C CNN
F 3 "" H 3025 2100 50  0001 C CNN
	1    3025 2100
	-1   0    0    1   
$EndComp
$Comp
L power:GND #PWR035
U 1 1 5A7C732C
P 3025 2300
F 0 "#PWR035" H 3025 2050 50  0001 C CNN
F 1 "GND" H 3030 2127 50  0000 C CNN
F 2 "" H 3025 2300 50  0001 C CNN
F 3 "" H 3025 2300 50  0001 C CNN
	1    3025 2300
	1    0    0    -1  
$EndComp
$Comp
L power:VCC #PWR036
U 1 1 5A7C7332
P 3025 1875
F 0 "#PWR036" H 3025 1725 50  0001 C CNN
F 1 "VCC" H 3042 2048 50  0000 C CNN
F 2 "" H 3025 1875 50  0001 C CNN
F 3 "" H 3025 1875 50  0001 C CNN
	1    3025 1875
	1    0    0    -1  
$EndComp
Wire Wire Line
	3025 1950 3025 1875
Wire Wire Line
	3025 2300 3025 2250
$Comp
L device:C C13
U 1 1 5A7CD5BB
P 6000 3850
F 0 "C13" V 5748 3850 50  0000 C CNN
F 1 "100n" V 5839 3850 50  0000 C CNN
F 2 "Capacitors_SMD:C_0603" H 6038 3700 50  0001 C CNN
F 3 "" H 6000 3850 50  0001 C CNN
	1    6000 3850
	-1   0    0    1   
$EndComp
$Comp
L power:GND #PWR037
U 1 1 5A7CD5C2
P 6000 4050
F 0 "#PWR037" H 6000 3800 50  0001 C CNN
F 1 "GND" H 6005 3877 50  0000 C CNN
F 2 "" H 6000 4050 50  0001 C CNN
F 3 "" H 6000 4050 50  0001 C CNN
	1    6000 4050
	1    0    0    -1  
$EndComp
$Comp
L power:VCC #PWR038
U 1 1 5A7CD5C8
P 6000 3625
F 0 "#PWR038" H 6000 3475 50  0001 C CNN
F 1 "VCC" H 6017 3798 50  0000 C CNN
F 2 "" H 6000 3625 50  0001 C CNN
F 3 "" H 6000 3625 50  0001 C CNN
	1    6000 3625
	1    0    0    -1  
$EndComp
Wire Wire Line
	6000 3700 6000 3625
Wire Wire Line
	6000 4050 6000 4000
$Comp
L device:C C14
U 1 1 5A7D399E
P 8450 2600
F 0 "C14" V 8198 2600 50  0000 C CNN
F 1 "100n" V 8289 2600 50  0000 C CNN
F 2 "Capacitors_SMD:C_0603" H 8488 2450 50  0001 C CNN
F 3 "" H 8450 2600 50  0001 C CNN
	1    8450 2600
	-1   0    0    1   
$EndComp
$Comp
L power:GND #PWR039
U 1 1 5A7D39A5
P 8450 2800
F 0 "#PWR039" H 8450 2550 50  0001 C CNN
F 1 "GND" H 8455 2627 50  0000 C CNN
F 2 "" H 8450 2800 50  0001 C CNN
F 3 "" H 8450 2800 50  0001 C CNN
	1    8450 2800
	1    0    0    -1  
$EndComp
$Comp
L power:VCC #PWR040
U 1 1 5A7D39AB
P 8450 2375
F 0 "#PWR040" H 8450 2225 50  0001 C CNN
F 1 "VCC" H 8467 2548 50  0000 C CNN
F 2 "" H 8450 2375 50  0001 C CNN
F 3 "" H 8450 2375 50  0001 C CNN
	1    8450 2375
	1    0    0    -1  
$EndComp
Wire Wire Line
	8450 2450 8450 2375
Wire Wire Line
	8450 2800 8450 2750
$Comp
L device:C C11
U 1 1 5A7E0B66
P 3225 5850
F 0 "C11" H 3340 5896 50  0000 L CNN
F 1 "10u" H 3340 5805 50  0000 L CNN
F 2 "Capacitors_SMD:C_1206" H 3263 5700 50  0001 C CNN
F 3 "" H 3225 5850 50  0001 C CNN
	1    3225 5850
	1    0    0    -1  
$EndComp
$Comp
L power:+5VP #PWR043
U 1 1 5A7E0E9F
P 3225 5650
F 0 "#PWR043" H 3225 5500 50  0001 C CNN
F 1 "+5VP" H 3240 5823 50  0000 C CNN
F 2 "" H 3225 5650 50  0001 C CNN
F 3 "" H 3225 5650 50  0001 C CNN
	1    3225 5650
	1    0    0    -1  
$EndComp
$Comp
L power:GND #PWR044
U 1 1 5A7E102B
P 3225 6050
F 0 "#PWR044" H 3225 5800 50  0001 C CNN
F 1 "GND" H 3230 5877 50  0000 C CNN
F 2 "" H 3225 6050 50  0001 C CNN
F 3 "" H 3225 6050 50  0001 C CNN
	1    3225 6050
	1    0    0    -1  
$EndComp
Wire Wire Line
	3225 6050 3225 6000
Wire Wire Line
	3225 5700 3225 5650
$Comp
L device:C C15
U 1 1 5A7B8A8B
P 1000 5675
F 0 "C15" V 748 5675 50  0000 C CNN
F 1 "100n" V 839 5675 50  0000 C CNN
F 2 "Capacitors_SMD:C_0603" H 1038 5525 50  0001 C CNN
F 3 "" H 1000 5675 50  0001 C CNN
	1    1000 5675
	-1   0    0    1   
$EndComp
$Comp
L power:GND #PWR045
U 1 1 5A7B8A92
P 1000 5875
F 0 "#PWR045" H 1000 5625 50  0001 C CNN
F 1 "GND" H 1005 5702 50  0000 C CNN
F 2 "" H 1000 5875 50  0001 C CNN
F 3 "" H 1000 5875 50  0001 C CNN
	1    1000 5875
	1    0    0    -1  
$EndComp
$Comp
L power:VCC #PWR046
U 1 1 5A7B8A98
P 1000 5450
F 0 "#PWR046" H 1000 5300 50  0001 C CNN
F 1 "VCC" H 1017 5623 50  0000 C CNN
F 2 "" H 1000 5450 50  0001 C CNN
F 3 "" H 1000 5450 50  0001 C CNN
	1    1000 5450
	1    0    0    -1  
$EndComp
Wire Wire Line
	1000 5525 1000 5450
Wire Wire Line
	1000 5875 1000 5825
$Comp
L device:R R20
U 1 1 5A7DC2A3
P 800 3325
F 0 "R20" V 593 3325 50  0000 C CNN
F 1 "1M" V 684 3325 50  0000 C CNN
F 2 "Resistors_SMD:R_0603" V 730 3325 50  0001 C CNN
F 3 "" H 800 3325 50  0001 C CNN
	1    800  3325
	-1   0    0    1   
$EndComp
Wire Wire Line
	800  3175 800  2675
Connection ~ 800  2675
$Comp
L power:GND #PWR042
U 1 1 5A7E3D8B
P 800 3525
F 0 "#PWR042" H 800 3275 50  0001 C CNN
F 1 "GND" H 805 3352 50  0000 C CNN
F 2 "" H 800 3525 50  0001 C CNN
F 3 "" H 800 3525 50  0001 C CNN
	1    800  3525
	1    0    0    -1  
$EndComp
Wire Wire Line
	800  3525 800  3475
$Comp
L device:R R21
U 1 1 5A7EB4C3
P 975 6775
F 0 "R21" V 768 6775 50  0000 C CNN
F 1 "1M" V 859 6775 50  0000 C CNN
F 2 "Resistors_SMD:R_0603" V 905 6775 50  0001 C CNN
F 3 "" H 975 6775 50  0001 C CNN
	1    975  6775
	-1   0    0    1   
$EndComp
$Comp
L power:GND #PWR048
U 1 1 5A7EB951
P 975 6975
F 0 "#PWR048" H 975 6725 50  0001 C CNN
F 1 "GND" H 980 6802 50  0000 C CNN
F 2 "" H 975 6975 50  0001 C CNN
F 3 "" H 975 6975 50  0001 C CNN
	1    975  6975
	1    0    0    -1  
$EndComp
Wire Wire Line
	975  6975 975  6925
Wire Wire Line
	975  6625 975  6475
Wire Wire Line
	975  6475 1000 6475
Wire Wire Line
	1000 6475 1000 6325
Connection ~ 1000 6325
$Comp
L device:R R22
U 1 1 5A803526
P 5675 2900
F 0 "R22" V 5468 2900 50  0000 C CNN
F 1 "1M" V 5559 2900 50  0000 C CNN
F 2 "Resistors_SMD:R_0603" V 5605 2900 50  0001 C CNN
F 3 "" H 5675 2900 50  0001 C CNN
	1    5675 2900
	-1   0    0    1   
$EndComp
$Comp
L power:GND #PWR049
U 1 1 5A8037E9
P 5675 2700
F 0 "#PWR049" H 5675 2450 50  0001 C CNN
F 1 "GND" H 5680 2527 50  0000 C CNN
F 2 "" H 5675 2700 50  0001 C CNN
F 3 "" H 5675 2700 50  0001 C CNN
	1    5675 2700
	-1   0    0    1   
$EndComp
Wire Wire Line
	5675 3075 5675 3050
Connection ~ 5675 3075
Wire Wire Line
	5675 2750 5675 2700
Wire Wire Line
	4575 5675 4575 5350
Wire Wire Line
	4575 5350 4325 5350
Wire Wire Line
	4650 5000 4650 6250
Wire Wire Line
	5100 5650 5625 5650
$Comp
L Connector_Generic:Conn_01x01 J5
U 1 1 5A834EBF
P 10400 875
F 0 "J5" H 10480 917 50  0000 L CNN
F 1 "Conn_01x01" H 10480 826 50  0000 L CNN
F 2 "mod:3mm_holes" H 10400 875 50  0001 C CNN
F 3 "~" H 10400 875 50  0001 C CNN
	1    10400 875 
	1    0    0    -1  
$EndComp
$Comp
L Connector_Generic:Conn_01x01 J6
U 1 1 5A83529D
P 10400 1050
F 0 "J6" H 10480 1092 50  0000 L CNN
F 1 "Conn_01x01" H 10480 1001 50  0000 L CNN
F 2 "mod:3mm_holes" H 10400 1050 50  0001 C CNN
F 3 "~" H 10400 1050 50  0001 C CNN
	1    10400 1050
	1    0    0    -1  
$EndComp
$Comp
L Connector_Generic:Conn_01x01 J7
U 1 1 5A835335
P 10400 1225
F 0 "J7" H 10480 1267 50  0000 L CNN
F 1 "Conn_01x01" H 10480 1176 50  0000 L CNN
F 2 "mod:3mm_holes" H 10400 1225 50  0001 C CNN
F 3 "~" H 10400 1225 50  0001 C CNN
	1    10400 1225
	1    0    0    -1  
$EndComp
$Comp
L Connector_Generic:Conn_01x01 J8
U 1 1 5A8353CB
P 10400 1400
F 0 "J8" H 10480 1442 50  0000 L CNN
F 1 "Conn_01x01" H 10480 1351 50  0000 L CNN
F 2 "mod:3mm_holes" H 10400 1400 50  0001 C CNN
F 3 "~" H 10400 1400 50  0001 C CNN
	1    10400 1400
	1    0    0    -1  
$EndComp
$Comp
L power:GND #PWR050
U 1 1 5A8355AE
P 10125 1475
F 0 "#PWR050" H 10125 1225 50  0001 C CNN
F 1 "GND" H 10130 1302 50  0000 C CNN
F 2 "" H 10125 1475 50  0001 C CNN
F 3 "" H 10125 1475 50  0001 C CNN
	1    10125 1475
	1    0    0    -1  
$EndComp
Wire Wire Line
	10125 1475 10125 1400
Wire Wire Line
	10125 1400 10200 1400
Wire Wire Line
	10200 1225 10125 1225
Wire Wire Line
	10125 1225 10125 1400
Connection ~ 10125 1400
Wire Wire Line
	10200 1050 10125 1050
Wire Wire Line
	10125 1050 10125 1225
Connection ~ 10125 1225
Wire Wire Line
	10200 875  10125 875 
Wire Wire Line
	10125 875  10125 1050
Connection ~ 10125 1050
$Comp
L Connector_Generic:Conn_01x01 J9
U 1 1 5A7B4552
P 1475 1800
F 0 "J9" V 1441 1712 50  0000 R CNN
F 1 "LIN" V 1350 1712 50  0000 R CNN
F 2 "pogo:RECP_709150001050006" H 1475 1800 50  0001 C CNN
F 3 "~" H 1475 1800 50  0001 C CNN
	1    1475 1800
	0    -1   -1   0   
$EndComp
Wire Wire Line
	1475 2000 1475 2300
Connection ~ 1475 2300
$Comp
L Connector_Generic:Conn_01x01 J11
U 1 1 5A7CE084
P 2225 3325
F 0 "J11" H 2145 3100 50  0000 C CNN
F 1 "CFB" H 2145 3191 50  0000 C CNN
F 2 "pogo:RECP_709150001050006" H 2225 3325 50  0001 C CNN
F 3 "~" H 2225 3325 50  0001 C CNN
	1    2225 3325
	-1   0    0    1   
$EndComp
Wire Wire Line
	2425 3325 2450 3325
Connection ~ 2450 3325
Wire Wire Line
	4825 1400 4825 1500
$Comp
L device:R R23
U 1 1 5A7E9D52
P 9850 3925
F 0 "R23" H 9920 3971 50  0000 L CNN
F 1 "24" H 9920 3880 50  0000 L CNN
F 2 "Resistors_SMD:R_1206" V 9780 3925 50  0001 C CNN
F 3 "" H 9850 3925 50  0001 C CNN
	1    9850 3925
	1    0    0    -1  
$EndComp
$Comp
L Connector_Generic:Conn_01x01 J13
U 1 1 5A7EA565
P 10150 3750
F 0 "J13" H 10230 3792 50  0000 L CNN
F 1 "CPM" H 10230 3701 50  0000 L CNN
F 2 "pogo:RECP_709150001050006" H 10150 3750 50  0001 C CNN
F 3 "~" H 10150 3750 50  0001 C CNN
	1    10150 3750
	1    0    0    -1  
$EndComp
Wire Wire Line
	9850 4125 9850 4075
Wire Wire Line
	10000 4075 9850 4075
Connection ~ 9850 4075
Wire Wire Line
	9950 3750 9850 3750
Connection ~ 9850 3750
Wire Wire Line
	9850 3750 9850 3725
$Comp
L Connector_Generic:Conn_01x01 J14
U 1 1 5A804D6F
P 10200 4075
F 0 "J14" H 10279 4117 50  0000 L CNN
F 1 "GND" H 10279 4026 50  0000 L CNN
F 2 "pogo:RECP_709150001050006" H 10200 4075 50  0001 C CNN
F 3 "~" H 10200 4075 50  0001 C CNN
	1    10200 4075
	1    0    0    -1  
$EndComp
$Comp
L Connector_Generic:Conn_01x01 J12
U 1 1 5A817395
P 2225 3700
F 0 "J12" H 2145 3475 50  0000 C CNN
F 1 "GND" H 2145 3566 50  0000 C CNN
F 2 "pogo:RECP_709150001050006" H 2225 3700 50  0001 C CNN
F 3 "~" H 2225 3700 50  0001 C CNN
	1    2225 3700
	-1   0    0    1   
$EndComp
$Comp
L power:GND #PWR041
U 1 1 5A81744B
P 2475 3750
F 0 "#PWR041" H 2475 3500 50  0001 C CNN
F 1 "GND" H 2480 3577 50  0000 C CNN
F 2 "" H 2475 3750 50  0001 C CNN
F 3 "" H 2475 3750 50  0001 C CNN
	1    2475 3750
	1    0    0    -1  
$EndComp
Wire Wire Line
	2425 3700 2475 3700
Wire Wire Line
	2475 3700 2475 3750
$Comp
L Connector_Generic:Conn_01x01 J10
U 1 1 5A820BA9
P 1625 7000
F 0 "J10" H 1545 6775 50  0000 C CNN
F 1 "GND" H 1545 6866 50  0000 C CNN
F 2 "pogo:RECP_709150001050006" H 1625 7000 50  0001 C CNN
F 3 "~" H 1625 7000 50  0001 C CNN
	1    1625 7000
	-1   0    0    1   
$EndComp
$Comp
L power:GND #PWR047
U 1 1 5A820BB0
P 1875 7050
F 0 "#PWR047" H 1875 6800 50  0001 C CNN
F 1 "GND" H 1880 6877 50  0000 C CNN
F 2 "" H 1875 7050 50  0001 C CNN
F 3 "" H 1875 7050 50  0001 C CNN
	1    1875 7050
	1    0    0    -1  
$EndComp
Wire Wire Line
	1825 7000 1875 7000
Wire Wire Line
	1875 7000 1875 7050
$Comp
L Connector_Generic:Conn_01x01 J15
U 1 1 5A82AEB7
P 1600 5450
F 0 "J15" V 1566 5362 50  0000 R CNN
F 1 "PMS" V 1475 5362 50  0000 R CNN
F 2 "pogo:RECP_709150001050006" H 1600 5450 50  0001 C CNN
F 3 "~" H 1600 5450 50  0001 C CNN
	1    1600 5450
	0    -1   -1   0   
$EndComp
Wire Wire Line
	1600 5650 1600 5950
Connection ~ 1600 5950
$Comp
L Connector_Generic:Conn_01x01 J16
U 1 1 5A834AB8
P 2475 5450
F 0 "J16" V 2441 5362 50  0000 R CNN
F 1 "PCT" V 2350 5362 50  0000 R CNN
F 2 "pogo:RECP_709150001050006" H 2475 5450 50  0001 C CNN
F 3 "~" H 2475 5450 50  0001 C CNN
	1    2475 5450
	0    -1   -1   0   
$EndComp
Wire Wire Line
	2475 5650 2475 5950
Connection ~ 2475 5950
$Comp
L Connector_Generic:Conn_01x01 J17
U 1 1 5A83F48E
P 2350 1825
F 0 "J17" V 2316 1737 50  0000 R CNN
F 1 "LOUT" V 2225 1737 50  0000 R CNN
F 2 "pogo:RECP_709150001050006" H 2350 1825 50  0001 C CNN
F 3 "~" H 2350 1825 50  0001 C CNN
	1    2350 1825
	0    -1   -1   0   
$EndComp
Wire Wire Line
	2350 2025 2350 2300
Connection ~ 2350 2300
Text Notes 3950 6600 0    50   ~ 0
I=0.1/1.8=0.055A
Text Notes 5450 6500 0    50   ~ 0
Relais stabil bis 12mA
Text Notes 3950 6700 0    50   ~ 0
(12/55)*2.5=0.54V
Text Notes 1350 3650 0    50   ~ 0
Iinit=55mA
Text Notes 1350 3750 0    50   ~ 0
Uo=0.45V
Text Notes 1350 3850 0    50   ~ 0
Uend=0.12V
$EndSCHEMATC
