M48
;DRILL file {KiCad (2018-01-17 revision a386da9ee)-makepkg} date 02/07/18 09:53:06
;FORMAT={-:-/ absolute / metric / decimal}
FMAT,2
METRIC,TZ
T1C0.400
T2C0.500
T3C1.200
T4C1.270
T5C1.300
T6C1.524
T7C3.200
%
G90
G05
M71
T1
X97.5Y-80.
X97.75Y-100.
X98.25Y-61.5
X98.5Y-94.25
X100.25Y-78.
X101.Y-62.25
X101.75Y-94.25
X106.5Y-63.75
X109.25Y-78.25
X110.Y-63.75
X111.Y-96.
X111.5Y-57.
X114.Y-89.
X114.75Y-60.25
X115.75Y-57.5
X116.Y-65.
X116.5Y-63.5
X118.5Y-77.5
X120.25Y-62.5
X120.5Y-56.25
X120.5Y-57.
X120.5Y-57.75
X123.Y-53.
X125.25Y-86.
T2
X165.714Y-51.
X166.4Y-49.4
X166.4Y-52.6
X168.Y-48.714
X168.Y-53.286
X83.714Y-51.
X84.4Y-49.4
X84.4Y-52.6
X86.Y-48.714
X87.6Y-49.4
X169.6Y-49.4
X170.286Y-51.
X86.Y-53.286
X169.6Y-104.6
X87.6Y-52.6
X169.6Y-52.6
X83.714Y-103.
X84.4Y-101.4
X84.4Y-104.6
X86.Y-100.714
X86.Y-105.286
X87.6Y-101.4
X87.6Y-104.6
X88.286Y-103.
X165.714Y-103.
X168.Y-100.714
X88.286Y-51.
X166.4Y-101.4
X166.4Y-104.6
X168.Y-105.286
X169.6Y-101.4
X170.286Y-103.
T3
X110.46Y-51.
X113.Y-51.
T4
X89.25Y-61.25
X89.25Y-76.5
X89.25Y-92.25
T5
X136.5Y-89.5
X136.5Y-97.12
X153.32Y-97.12
X156.82Y-89.5
X160.32Y-97.12
X136.5Y-57.5
X136.5Y-65.12
X153.32Y-65.12
X156.82Y-57.5
X160.32Y-65.12
X136.5Y-73.
X136.5Y-80.62
X153.32Y-80.62
X156.82Y-73.
X160.32Y-80.62
T6
X86.075Y-58.075
X86.075Y-64.425
X92.425Y-58.075
X92.425Y-64.425
X86.075Y-73.325
X86.075Y-79.675
X92.425Y-73.325
X92.425Y-79.675
X86.075Y-89.075
X86.075Y-95.425
X92.425Y-89.075
X92.425Y-95.425
T7
X86.Y-103.
X168.Y-103.
X168.Y-51.
X86.Y-51.
T0
M30
