G04 #@! TF.GenerationSoftware,KiCad,Pcbnew,(2018-01-17 revision a386da9ee)-makepkg*
G04 #@! TF.CreationDate,2018-02-07T09:58:07+01:00*
G04 #@! TF.ProjectId,relaydvr,72656C61796476722E6B696361645F70,rev?*
G04 #@! TF.SameCoordinates,Original*
G04 #@! TF.FileFunction,Soldermask,Bot*
G04 #@! TF.FilePolarity,Negative*
%FSLAX46Y46*%
G04 Gerber Fmt 4.6, Leading zero omitted, Abs format (unit mm)*
G04 Created by KiCad (PCBNEW (2018-01-17 revision a386da9ee)-makepkg) date 02/07/18 09:58:07*
%MOMM*%
%LPD*%
G01*
G04 APERTURE LIST*
%ADD10C,4.010000*%
%ADD11C,3.756000*%
%ADD12R,2.200000X2.800000*%
%ADD13O,2.200000X2.800000*%
%ADD14C,3.200000*%
%ADD15C,0.700000*%
%ADD16C,6.000000*%
%ADD17C,1.000000*%
G04 APERTURE END LIST*
D10*
X92425000Y-79675000D03*
X86075000Y-79675000D03*
X92425000Y-73325000D03*
D11*
X89250000Y-76500000D03*
D10*
X86075000Y-73325000D03*
X86075000Y-58075000D03*
D11*
X89250000Y-61250000D03*
D10*
X92425000Y-58075000D03*
X86075000Y-64425000D03*
X92425000Y-64425000D03*
D12*
X113000000Y-51000000D03*
D13*
X110460000Y-51000000D03*
D10*
X86075000Y-89075000D03*
D11*
X89250000Y-92250000D03*
D10*
X92425000Y-89075000D03*
X86075000Y-95425000D03*
X92425000Y-95425000D03*
D14*
X153320000Y-65120000D03*
X160320000Y-65120000D03*
X156820000Y-57500000D03*
X136500000Y-65120000D03*
X136500000Y-57500000D03*
X153320000Y-80620000D03*
X160320000Y-80620000D03*
X156820000Y-73000000D03*
X136500000Y-80620000D03*
X136500000Y-73000000D03*
X153320000Y-97120000D03*
X160320000Y-97120000D03*
X156820000Y-89500000D03*
X136500000Y-97120000D03*
X136500000Y-89500000D03*
D15*
X87600000Y-52600000D03*
X86000000Y-53286000D03*
X84400000Y-52600000D03*
X84400000Y-49400000D03*
X88286000Y-51000000D03*
X87600000Y-49400000D03*
X83714000Y-51000000D03*
X86000000Y-48714000D03*
D16*
X86000000Y-51000000D03*
X168000000Y-51000000D03*
D15*
X168000000Y-48714000D03*
X165714000Y-51000000D03*
X169600000Y-49400000D03*
X170286000Y-51000000D03*
X166400000Y-49400000D03*
X166400000Y-52600000D03*
X168000000Y-53286000D03*
X169600000Y-52600000D03*
X87600000Y-104600000D03*
X86000000Y-105286000D03*
X84400000Y-104600000D03*
X84400000Y-101400000D03*
X88286000Y-103000000D03*
X87600000Y-101400000D03*
X83714000Y-103000000D03*
X86000000Y-100714000D03*
D16*
X86000000Y-103000000D03*
X168000000Y-103000000D03*
D15*
X168000000Y-100714000D03*
X165714000Y-103000000D03*
X169600000Y-101400000D03*
X170286000Y-103000000D03*
X166400000Y-101400000D03*
X166400000Y-104600000D03*
X168000000Y-105286000D03*
X169600000Y-104600000D03*
D17*
X97500000Y-80000000D03*
X97750000Y-100000000D03*
X116000000Y-65000000D03*
X125250000Y-86000000D03*
X118500000Y-77500000D03*
X98250000Y-61500000D03*
X101750000Y-94250000D03*
X98500000Y-94250000D03*
X123000000Y-53000000D03*
X111000000Y-96000000D03*
X114000000Y-89000000D03*
X101000000Y-62250000D03*
X100250000Y-78000000D03*
X109250000Y-78250000D03*
X111500000Y-57000000D03*
X106500000Y-63750000D03*
X120500000Y-57750000D03*
X120500000Y-57000000D03*
X120500000Y-56250000D03*
X110000000Y-63750000D03*
X116500000Y-63500000D03*
X120250000Y-62500000D03*
X115750000Y-57500000D03*
X114750000Y-60250000D03*
M02*
